^C:\USERS\DYLAN SCHELTENS\DOCUMENTS\VISUAL STUDIO 2013\PROJECTS\ONEISSARW\ONEISSA\CAMERA.CPP
/c /I"C:\Users\Dylan Scheltens\Desktop\Development\Libraries\C++\libnoise\include" /I"C:\Users\Dylan Scheltens\Desktop\Development\Libraries\Lua\include" /I"C:\Users\Dylan Scheltens\Desktop\Development\Libraries\C++\SOIL\include" /I"C:\Users\Dylan Scheltens\Desktop\Development\Libraries\C++\SDL2-2.0.3\include" /I"C:\Users\Dylan Scheltens\Desktop\Development\Libraries\glm" /I"C:\Users\Dylan Scheltens\Desktop\Development\Libraries\C++\glew-1.10.0\include\GL" /I"C:\Users\Dylan Scheltens\Desktop\Development\Libraries\C++\FreeType-2.1.4\include" /I"C:\Users\Dylan Scheltens\Desktop\Development\Libraries\C++\glut-3.7.6-bin" /Zi /nologo /W3 /WX- /sdl /O2 /Oi /Oy- /GL /D WIN32 /D NDEBUG /D _CONSOLE /D _LIB /D _UNICODE /D UNICODE /Gm- /EHsc /MD /GS /Gy /fp:precise /Zc:wchar_t /Zc:forScope /Fo"RELEASE\\" /Fd"RELEASE\VC120.PDB" /Gd /TP /analyze- C:\USERS\DYLAN SCHELTENS\DOCUMENTS\VISUAL STUDIO 2013\PROJECTS\ONEISSARW\ONEISSA\CAMERA.CPP
^C:\USERS\DYLAN SCHELTENS\DOCUMENTS\VISUAL STUDIO 2013\PROJECTS\ONEISSARW\ONEISSA\GLSLSHADER.CPP
/c /I"C:\Users\Dylan Scheltens\Desktop\Development\Libraries\C++\libnoise\include" /I"C:\Users\Dylan Scheltens\Desktop\Development\Libraries\Lua\include" /I"C:\Users\Dylan Scheltens\Desktop\Development\Libraries\C++\SOIL\include" /I"C:\Users\Dylan Scheltens\Desktop\Development\Libraries\C++\SDL2-2.0.3\include" /I"C:\Users\Dylan Scheltens\Desktop\Development\Libraries\glm" /I"C:\Users\Dylan Scheltens\Desktop\Development\Libraries\C++\glew-1.10.0\include\GL" /I"C:\Users\Dylan Scheltens\Desktop\Development\Libraries\C++\FreeType-2.1.4\include" /I"C:\Users\Dylan Scheltens\Desktop\Development\Libraries\C++\glut-3.7.6-bin" /Zi /nologo /W3 /WX- /sdl /O2 /Oi /Oy- /GL /D WIN32 /D NDEBUG /D _CONSOLE /D _LIB /D _UNICODE /D UNICODE /Gm- /EHsc /MD /GS /Gy /fp:precise /Zc:wchar_t /Zc:forScope /Fo"RELEASE\\" /Fd"RELEASE\VC120.PDB" /Gd /TP /analyze- C:\USERS\DYLAN SCHELTENS\DOCUMENTS\VISUAL STUDIO 2013\PROJECTS\ONEISSARW\ONEISSA\GLSLSHADER.CPP
^C:\USERS\DYLAN SCHELTENS\DOCUMENTS\VISUAL STUDIO 2013\PROJECTS\ONEISSARW\ONEISSA\LUASCRIPT.CPP
/c /I"C:\Users\Dylan Scheltens\Desktop\Development\Libraries\C++\libnoise\include" /I"C:\Users\Dylan Scheltens\Desktop\Development\Libraries\Lua\include" /I"C:\Users\Dylan Scheltens\Desktop\Development\Libraries\C++\SOIL\include" /I"C:\Users\Dylan Scheltens\Desktop\Development\Libraries\C++\SDL2-2.0.3\include" /I"C:\Users\Dylan Scheltens\Desktop\Development\Libraries\glm" /I"C:\Users\Dylan Scheltens\Desktop\Development\Libraries\C++\glew-1.10.0\include\GL" /I"C:\Users\Dylan Scheltens\Desktop\Development\Libraries\C++\FreeType-2.1.4\include" /I"C:\Users\Dylan Scheltens\Desktop\Development\Libraries\C++\glut-3.7.6-bin" /Zi /nologo /W3 /WX- /sdl /O2 /Oi /Oy- /GL /D WIN32 /D NDEBUG /D _CONSOLE /D _LIB /D _UNICODE /D UNICODE /Gm- /EHsc /MD /GS /Gy /fp:precise /Zc:wchar_t /Zc:forScope /Fo"RELEASE\\" /Fd"RELEASE\VC120.PDB" /Gd /TP /analyze- C:\USERS\DYLAN SCHELTENS\DOCUMENTS\VISUAL STUDIO 2013\PROJECTS\ONEISSARW\ONEISSA\LUASCRIPT.CPP
^C:\USERS\DYLAN SCHELTENS\DOCUMENTS\VISUAL STUDIO 2013\PROJECTS\ONEISSARW\ONEISSA\CONTENTSYSTEM.CPP
/c /I"C:\Users\Dylan Scheltens\Desktop\Development\Libraries\C++\libnoise\include" /I"C:\Users\Dylan Scheltens\Desktop\Development\Libraries\Lua\include" /I"C:\Users\Dylan Scheltens\Desktop\Development\Libraries\C++\SOIL\include" /I"C:\Users\Dylan Scheltens\Desktop\Development\Libraries\C++\SDL2-2.0.3\include" /I"C:\Users\Dylan Scheltens\Desktop\Development\Libraries\glm" /I"C:\Users\Dylan Scheltens\Desktop\Development\Libraries\C++\glew-1.10.0\include\GL" /I"C:\Users\Dylan Scheltens\Desktop\Development\Libraries\C++\FreeType-2.1.4\include" /I"C:\Users\Dylan Scheltens\Desktop\Development\Libraries\C++\glut-3.7.6-bin" /Zi /nologo /W3 /WX- /sdl /O2 /Oi /Oy- /GL /D WIN32 /D NDEBUG /D _CONSOLE /D _LIB /D _UNICODE /D UNICODE /Gm- /EHsc /MD /GS /Gy /fp:precise /Zc:wchar_t /Zc:forScope /Fo"RELEASE\\" /Fd"RELEASE\VC120.PDB" /Gd /TP /analyze- C:\USERS\DYLAN SCHELTENS\DOCUMENTS\VISUAL STUDIO 2013\PROJECTS\ONEISSARW\ONEISSA\CONTENTSYSTEM.CPP
^C:\USERS\DYLAN SCHELTENS\DOCUMENTS\VISUAL STUDIO 2013\PROJECTS\ONEISSARW\ONEISSA\COORDSYSTEM.CPP
/c /I"C:\Users\Dylan Scheltens\Desktop\Development\Libraries\C++\libnoise\include" /I"C:\Users\Dylan Scheltens\Desktop\Development\Libraries\Lua\include" /I"C:\Users\Dylan Scheltens\Desktop\Development\Libraries\C++\SOIL\include" /I"C:\Users\Dylan Scheltens\Desktop\Development\Libraries\C++\SDL2-2.0.3\include" /I"C:\Users\Dylan Scheltens\Desktop\Development\Libraries\glm" /I"C:\Users\Dylan Scheltens\Desktop\Development\Libraries\C++\glew-1.10.0\include\GL" /I"C:\Users\Dylan Scheltens\Desktop\Development\Libraries\C++\FreeType-2.1.4\include" /I"C:\Users\Dylan Scheltens\Desktop\Development\Libraries\C++\glut-3.7.6-bin" /Zi /nologo /W3 /WX- /sdl /O2 /Oi /Oy- /GL /D WIN32 /D NDEBUG /D _CONSOLE /D _LIB /D _UNICODE /D UNICODE /Gm- /EHsc /MD /GS /Gy /fp:precise /Zc:wchar_t /Zc:forScope /Fo"RELEASE\\" /Fd"RELEASE\VC120.PDB" /Gd /TP /analyze- C:\USERS\DYLAN SCHELTENS\DOCUMENTS\VISUAL STUDIO 2013\PROJECTS\ONEISSARW\ONEISSA\COORDSYSTEM.CPP
^C:\USERS\DYLAN SCHELTENS\DOCUMENTS\VISUAL STUDIO 2013\PROJECTS\ONEISSARW\ONEISSA\ONEISSAMATH.CPP
/c /I"C:\Users\Dylan Scheltens\Desktop\Development\Libraries\C++\libnoise\include" /I"C:\Users\Dylan Scheltens\Desktop\Development\Libraries\Lua\include" /I"C:\Users\Dylan Scheltens\Desktop\Development\Libraries\C++\SOIL\include" /I"C:\Users\Dylan Scheltens\Desktop\Development\Libraries\C++\SDL2-2.0.3\include" /I"C:\Users\Dylan Scheltens\Desktop\Development\Libraries\glm" /I"C:\Users\Dylan Scheltens\Desktop\Development\Libraries\C++\glew-1.10.0\include\GL" /I"C:\Users\Dylan Scheltens\Desktop\Development\Libraries\C++\FreeType-2.1.4\include" /I"C:\Users\Dylan Scheltens\Desktop\Development\Libraries\C++\glut-3.7.6-bin" /Zi /nologo /W3 /WX- /sdl /O2 /Oi /Oy- /GL /D WIN32 /D NDEBUG /D _CONSOLE /D _LIB /D _UNICODE /D UNICODE /Gm- /EHsc /MD /GS /Gy /fp:precise /Zc:wchar_t /Zc:forScope /Fo"RELEASE\\" /Fd"RELEASE\VC120.PDB" /Gd /TP /analyze- C:\USERS\DYLAN SCHELTENS\DOCUMENTS\VISUAL STUDIO 2013\PROJECTS\ONEISSARW\ONEISSA\ONEISSAMATH.CPP
^C:\USERS\DYLAN SCHELTENS\DOCUMENTS\VISUAL STUDIO 2013\PROJECTS\ONEISSARW\ONEISSA\MAIN.CPP
/c /I"C:\Users\Dylan Scheltens\Desktop\Development\Libraries\C++\libnoise\include" /I"C:\Users\Dylan Scheltens\Desktop\Development\Libraries\Lua\include" /I"C:\Users\Dylan Scheltens\Desktop\Development\Libraries\C++\SOIL\include" /I"C:\Users\Dylan Scheltens\Desktop\Development\Libraries\C++\SDL2-2.0.3\include" /I"C:\Users\Dylan Scheltens\Desktop\Development\Libraries\glm" /I"C:\Users\Dylan Scheltens\Desktop\Development\Libraries\C++\glew-1.10.0\include\GL" /I"C:\Users\Dylan Scheltens\Desktop\Development\Libraries\C++\FreeType-2.1.4\include" /I"C:\Users\Dylan Scheltens\Desktop\Development\Libraries\C++\glut-3.7.6-bin" /Zi /nologo /W3 /WX- /sdl /O2 /Oi /Oy- /GL /D WIN32 /D NDEBUG /D _CONSOLE /D _LIB /D _UNICODE /D UNICODE /Gm- /EHsc /MD /GS /Gy /fp:precise /Zc:wchar_t /Zc:forScope /Fo"RELEASE\\" /Fd"RELEASE\VC120.PDB" /Gd /TP /analyze- C:\USERS\DYLAN SCHELTENS\DOCUMENTS\VISUAL STUDIO 2013\PROJECTS\ONEISSARW\ONEISSA\MAIN.CPP
^C:\USERS\DYLAN SCHELTENS\DOCUMENTS\VISUAL STUDIO 2013\PROJECTS\ONEISSARW\ONEISSA\MESHER.CPP
/c /I"C:\Users\Dylan Scheltens\Desktop\Development\Libraries\C++\libnoise\include" /I"C:\Users\Dylan Scheltens\Desktop\Development\Libraries\Lua\include" /I"C:\Users\Dylan Scheltens\Desktop\Development\Libraries\C++\SOIL\include" /I"C:\Users\Dylan Scheltens\Desktop\Development\Libraries\C++\SDL2-2.0.3\include" /I"C:\Users\Dylan Scheltens\Desktop\Development\Libraries\glm" /I"C:\Users\Dylan Scheltens\Desktop\Development\Libraries\C++\glew-1.10.0\include\GL" /I"C:\Users\Dylan Scheltens\Desktop\Development\Libraries\C++\FreeType-2.1.4\include" /I"C:\Users\Dylan Scheltens\Desktop\Development\Libraries\C++\glut-3.7.6-bin" /Zi /nologo /W3 /WX- /sdl /O2 /Oi /Oy- /GL /D WIN32 /D NDEBUG /D _CONSOLE /D _LIB /D _UNICODE /D UNICODE /Gm- /EHsc /MD /GS /Gy /fp:precise /Zc:wchar_t /Zc:forScope /Fo"RELEASE\\" /Fd"RELEASE\VC120.PDB" /Gd /TP /analyze- C:\USERS\DYLAN SCHELTENS\DOCUMENTS\VISUAL STUDIO 2013\PROJECTS\ONEISSARW\ONEISSA\MESHER.CPP
